{
  "images" : [
    {
      "idiom" : "iphone"
    },
    {
      "idiom" : "iphone",
      "subtype" : "retina4"
    },
    {
      "idiom" : "iphone",
      "scale" : "1x"
    },
    {
      "idiom" : "iphone",
      "scale" : "2x",
      "filename" : "tileHighlight@2x~iphone.png"
    },
    {
      "idiom" : "iphone",
      "subtype" : "retina4",
      "scale" : "2x"
    },
    {
      "idiom" : "iphone",
      "scale" : "3x"
    },
    {
      "idiom" : "ipad"
    },
    {
      "idiom" : "ipad",
      "scale" : "1x"
    },
    {
      "idiom" : "ipad",
      "scale" : "2x",
      "filename" : "highlight_white_1.png"
    }
  ],
  "info" : {
    "version" : 1,
    "author" : "xcode"
  }
}