{
  "images" : [
    {
      "idiom" : "ipad"
    },
    {
      "idiom" : "ipad",
      "scale" : "1x"
    },
    {
      "idiom" : "ipad",
      "scale" : "2x",
      "filename" : "logo_1@2x~iPad.png"
    }
  ],
  "info" : {
    "version" : 1,
    "author" : "xcode"
  }
}